id,name,company,city,county,state,lat,lon,opened,status,retired,capacity,unit_id,radius
1,Nature's Earth Pellet,Nature's Earth Pellet,Reform,Pickens,AL,33.3554762,-88.0201221,2006,Operating,2019,90000,33572800,50
3,Zilkha Biomass,Zilkha Biomass,Selma,Dallas,AL,32.41621,-86.869736,2015,Shut down,2017,275000,34618893,50
5,BioWood LLC,Biowood LLC,Monticello,Drew,AR,33.580852,-91.792515,1990,Operating,2019,40000,35059721,50
6,Fiber Energy Products AR,Forest Energy Products (Previously Sparkman Wood Pellets),Mountain View,Stone,AR,35.868408,-92.117652,2016,Operating,2019,35000,38809175,50
7,Fiber Resources,Fiber Resources Incorporated,Pine Bluff,Jefferson,AR,34.2179549,-91.893087,2016,Operating,2019,80000,32759983,50
9,Enviva Cottondale,Enviva LP,Cottondale,Jackson,FL,30.738056,-85.3925,2016,Operating,2019,826000,3785832,50
11,Appling County Pellets,FRAM Renewable Fuels,Baxley,Appling,GA,31.815192,-82.4677134,2010,Operating,2019,254000,38598471,50
12,Enviva Amory,Enviva LP,Amory,Monroe,MS,33.9877665,-88.4948033,2011,Operating,2019,121000,39765844,50
13,Trae Fuels,EnviroTech,Bumpass,Louisa,VA,37.9620985,-77.7772379,2013,Shut down,2017,132000,39295777,50
14,Lignetics Kenbridge,"Lignetics, Inc.",Kenbridge,Lunenburg,VA,36.9249543,-78.0887604,2009,Operating,2019,90000,39453708,50
15,Palmetto Renewable Energy,Palmetto Renewable Energy,Martin,Allendale,SC,33.095784,-81.496269,2008,Shut down,2010,16000,30588466,50
16,Said Company,Said Company,Sylvania,Screven,GA,32.879694,-81.655767,1990,Operating,2019,45000,38998656,50
18,Rockwood Pellets,Rockwood Pellets,The Rock,Upson,GA,32.964675,-84.239575,2006,Shut down,2012,15000,39478297,50
87,Enviva Wiggins,Enviva LP,Perkinson,Stone,MS,30.795328,-89.128886,2011,Shut down,2017,121000,37528188,50
100,Nature's Earth Pellet),"GreenWorld Development, Inc",Laurinburg,Scotland,NC,34.796838,-79.460653,2015,Operating,2019,100000,37637405,50
113,American Wood Fibers,American Wood Fibers,Marion,Smyth,VA,36.812276,-81.647999,2009,Operating,2019,50000,38278679,50
116,Lee Energy Solutions LLC,Lee Energy Solutions LLC,Crossville,Dekalb,AL,34.287592,-85.99414,2009,Shut down,2017,116000,32798944,50
120,Gulf Coast Renewable Energy,Gulf Coast Renewable Energy (formerly Bayou Wood Pellets LLC),West Monroe,Ouachita,LA,32.545891,-92.250416,2008,Shut down,2016,60000,35599201,50
121,Hassell & Hughes Lumber Company,Hassell & Hughes Lumber Company,Collinwood,Wayne,TN,35.169528,-87.74635,2007,Operating,2019,25000,31928765,50
122,Henry County Hardwoods,Henry County Hardwoods,Paris,Henry,TN,36.302746,-88.377133,2009,Operating,2019,7500,33248373,50
123,Varn Wood Products,Varn Wood Products,Hoboken,Brantley,GA,31.18204167,-82.13737222,2016,Operating,2019,88000,31246817,50
130,Big Heat Wood Pellets,Big Heat Wood Pellets,Chester,Chesterfield,VA,37.350952,-77.314138,2010,Operating,2019,80000,33057343,50
131,O'Malley Lumber Co,O'Malley Lumber Co,Tappahannock,Essex,VA,37.91468889,-76.87427778,2008,Operating,2019,35000,39488784,50
132,"Potomac Supply, LLC",American Industrial Partners (formerly Potomac Supply),Kinsale,Westmoreland,VA,38.023017,-76.595697,2009,Operating,2019,20000,30317559,50
133,Turman Hardwood Flooring,Turman Hardwood Flooring,Galax,Carroll,VA,36.649012,-80.939184,2005,Operating,2019,15000,36918998,50
142,E-Pellets,E-Pellets,Nahunta,Brantley,GA,31.208614,-81.95505,2015,Shut down,2016,187000,32818955,50
143,Georgia Biomass,Innogy (Previously RWE),Waycross,Ware,GA,31.258221,-82.408639,2017,Operating,2019,827000,32828483,50
156,Eastern Mountain Pellet Company,Eastern Mountain Pellet Company (formerly Eden Pellets),Chesapeake,Norfolk,VA,36.795298,-76.262319,2012,Shut down,2017,60000,37597221,50
158,Bioensertech,Bioensertech,Menomonie,Dunn,WI,44.893328,-91.879588,2009,Operating,2019,200000,48329898,50
162,Corinth Wood Pellets,Corinth Wood Pellets,Corinth,Penobscot,ME,44.989666,-69.010872,2008,Operating,2019,100000,49966007,50
166,Kirtland Products,Kirtland Products,Boyne City,Charlevoix,MI,45.207589,-84.989216,2016,Operating,2019,30000,42788991,50
167,New England Wood Pellet,"Lignetics, Inc.",Deposit,Delaware,NY,42.049421,-75.418361,2011,Operating,2019,85000,40927486,50
169,Curran Renewable Energy,Curran Renewable Energy,Massena,St. Lawrence,NY,44.908828,-74.891155,2016,Operating,2019,120000,49827815,50
170,Maine Woods Pellet,Maine Woods Pellet,Athens,Somerset,ME,44.964935,-69.567872,2009,Operating,2019,100000,49436577,50
171,Schuyler Manufacturing (New England Wood Pellet),"Lignetics, Inc.",Schuyler,Herkimer,NY,42.513004,-76.842567,2016,Operating,2019,77000,45307826,50
175,Indeck Energy Ladysmith BioFuel Center,Indeck Energy Services,Ladysmith,Rusk,WI,45.437535,-91.101375,2010,Operating,2019,90000,44739117,50
176,Lakes Region Pellets,Lakes Region Pellets,Barnstead,Belknap,NH,43.341982,-71.263863,2009,Shut down,2011,10000,43187236,50
177,Great Lakes Renewable Energy,Great Lakes Renewable Energy,Hayward,Sawyer,WI,46.003125,-91.499608,2009,Operating,2019,36000,40329490,50
178,Tri State Biofuels,Tri State Biofuels,Lemont Furnace,Fayette,PA,39.907221,-79.674008,2009,Shut down,2017,50000,39727640,50
185,Essex Pallet and Pellet,Essex Box & Pallet,Keeseville,Essex,NY,44.490127,-73.489568,2010,Operating,2019,22000,44027496,50
188,Renewafuel,RNFL Acquisition LLC (previously Cliffs Natural Resources),Battle Creek,Calhoun,MI,42.321152,-85.179714,2009,Shut down,2012,60000,43158191,50
189,Valley Forest Wood Products,Valley Forest Wood Products,Marcell,Itasca,MN,47.587306,-93.686021,2008,Shut down,2011,60000,45709662,50
191,Keystone Pellet,Keystone Pellet,Palmerton,Carbon,PA,40.817319,-75.55899,2009,Operating,2019,35000,48717589,50
193,New England Wood Pellet,"Lignetics, Inc.",Jaffrey,Cheshire,NH,42.816417,-71.988552,2008,Operating,2019,84000,48617985,50
196,Vermont Wood Pellet Co.,Vermont Wood Pellet Co.,Clarendon,Rutland,VT,43.529184,-72.957187,2013,Operating,2019,16000,45987978,50
264,Anderson Hardwood Pellets,Anderson Hardwood Pellets,Louisville,Jefferson,KY,38.235394,-85.805528,2007,Operating,2019,19841,32598852,50
265,Southern Kentucky Pellet Mill,Southern Kentucky Pellet Mill,Gamaliel,Monroe,KY,36.637722,-85.794241,2006,Operating,2019,19841,36728744,50
266,Somerset Pellet Fuel,Somerset Pellet Fuel,Somerset,Pulaski,KY,37.046857,-84.626069,2016,Operating,2019,55000,30658666,50
267,Hamer Pellet Fuel,Hamer Pellet Fuel,Elkins,Randolph,WV,38.914748,-79.849979,2016,Operating,2019,70000,39447897,50
268,Hamer Pellet Fuel,Hamer Pellet Fuel,Mt. Hope,Fayette,WV,37.895391,-81.164268,2007,Shut down,2017,45195,38598146,50
269,Lignetics Linn,"Lignetics, Inc.",Linn,Gilmer,WV,39.008146,-80.718988,2010,Operating,2019,125000,30848788,50
270,Koetter and Smith,Smith Creek,Borden,Clark,IN,38.404052,-85.9374,2006,Operating,2019,1102,3445897,50
271,Fiber By-Prod,Fiber By-Prod,White Pigeon,St. Joseph,MI,41.769575,-85.666868,2016,Operating,2019,114000,47978666,50
273,Maeder Brothers,Maeder Brothers,Weidman,Isabella,MI,43.683573,-84.950326,2007,Operating,2019,25353,46378902,50
274,Mich Wood Pellet,Mich Wood Pellet,Grayling,Crawford,MI,44.653897,-84.698664,2007,Operating,2019,50000,46398686,50
275,Mich Wood Pellet Fuel,Mich Wood Pellet Fuel,Holland,Ottawa,MI,42.757047,-86.088249,2008,Operating,2019,50000,47748084,50
277,Vulcan Wood Products,Vulcan Wood Products,Norway,Dickinson,MI,45.774245,-87.839486,2007,Operating,2019,11000,47448898,50
279,Ozark Hardwood Products,Fiber Energy Products,Seymour,Webster,MO,37.164273,-92.751932,2016,Operating,2019,140000,31479713,50
280,Pennington Seed,Pennington Seed,Greenfield,Dade,MO,37.410237,-93.848722,2007,Operating,2019,15000,34039882,50
281,American Wood Fibers,American Wood Fibers,Circleville,Pickaway,OH,39.560743,-82.944148,2005,Operating,2019,40000,35048944,50
282,Badgerland Pellets,Badgerland Pellets,Sheboygan Falls,Sheboygan,WI,43.674714,-87.78178,2008,Shut down,2012,5500,46418718,50
283,Bay Lakes Cos,Bay Lakes Cos,Oconto Falls,Oconto,WI,44.88503,-88.153486,2009,Operating,2019,20000,48538138,50
284,Elkhorn Industries,Elkhorn Industries,Superior,Douglas,WI,46.733976,-92.082123,2008,Operating,2019,36000,47379022,50
289,Marth Wood Shaving Supply,"Lignetics, Inc.",Marathon,Marathon,WI,45.033761,-89.845612,2006,Operating,2019,75000,40368851,50
291,Wood Residuals Solutions,Wood Residuals Solutions,Montelo,Marquette,WI,43.780944,-89.321071,2010,Operating,2019,0,47048317,50
293,Northeast Wood Products LLC (Previously Pennington Seed),Northeast Wood Products LLC,Ligonier,Noble,IN,41.473129,-85.596321,2014,Temporarily Idled,2016,66000,44328562,50
324,Geneva Wood Fuels,"Lignetics, Inc.",Strong,Franklin,ME,44.800155,-70.206902,2009,Operating,2019,80000,48057260,50
325,Northeast Pellets,Northeast Pellets,Ashland,Aroostook,ME,46.633106,-68.436101,2016,Operating,2019,55000,46306460,50
326,Presby Environmental,Presby Environmental,Whitefield,Coos,NH,44.266679,-71.546017,2009,Operating,2019,55000,42677561,50
327,Associated Harvest,Associated Harvest,La Fargeville,Jefferson,NY,44.194797,-75.966102,2005,Operating,2019,10000,41497960,50
328,Dry Creek Products,Choice Forest Products (Delta Point Capital Management),Arcade,Wyoming,NY,42.525533,-78.456054,2017,Operating,2019,85000,45537465,50
329,AJ Stoves & Pellets,AJ Stoves & Pellets,Marion,Franklin,PA,39.857274,-77.696576,2007,Shut down,2010,0,38777667,50
330,Allegheny Pellet (New England Wood Pellet),"Lignetics, Inc.",Youngsville,Warren,PA,41.864063,-79.328352,2015,Operating,2019,50000,48467385,50
331,Bald Eagle Pellet,Bald Eagle Pellet,Tyrone,Blair,PA,40.670681,-78.238495,2009,Operating,2019,6600,46087289,50
332,Barefoot Pellet,Barefoot Pellet,Troy,Bradford,PA,41.785908,-76.788011,2009,Operating,2019,33000,47507781,50
333,Energex Pellet Fuel,Energex Pellet Fuel,Mifflintown,Juniata,PA,40.543814,-77.368274,2009,Operating,2019,60000,45317387,50
334,Greene Team Pellet Fuel,Greene Team Pellet Fuel,Garards Fort,Greene,PA,39.818322,-80.025431,2007,Operating,2019,24000,38828053,50
335,PA Pellets,Choice Forest Products (Delta Point Capital Management),Ulysses,Potter,PA,41.898305,-77.779045,2008,Operating,2019,48800,48807794,50
336,Penn Wood Products,Penn Wood Products,East Berlin,Adams,PA,39.9363,-76.98054,2004,Operating,2019,4400,3967904,50
337,Wood Pellets,Wood Pellets,Summerhill,Cambria,PA,40.405061,-78.757136,2003,Operating,2019,32000,44567773,50
338,Treecycle,Treecycle,Glen Gardner,Hunterdon,NJ,40.681322,-74.920957,2009,Operating,2019,80000,46127905,50
363,Fire Glow Wood Pellets,Fire Glow Wood Pellets,Manistee,Manistee,MI,44.239527,-86.276807,2011,Operating,2019,0,42928260,50
387,Great American Pellet Company,Great American Pellet Company,Palmerton,Carbon,PA,40.817342,-75.55327,2011,Shut down,2014,32000,48747537,50
391,Low Country BioMass (previously Champion Wood Pellets),"Low Country BioMass, LLC",Ridgeland,Jasper,SC,32.475551,-81.024512,2015,Shut down,2017,50000,34558041,50
399,Crate Creations,Crate Creations,Richmond,Wayne,IN,39.867113,-84.919305,2011,Operating,2019,0,38718990,50
438,Ace Pellet Co.,Ace Pellet Co.,Cedar Grove,Carroll,TN,35.746194,-88.541555,2009,Operating,2019,2500,37698515,50
477,InstantHeat Wood Pellets,InstantHeat Wood Pellets,Addison,Steuben,NY,42.096761,-77.244618,2007,Operating,2019,50000,40667241,50
485,Hearthside Wood Pellets,Catskill Craftsmen,Stamford,Delaware,NY,42.407033,-74.625214,2008,Operating,2019,5000,44737651,50
498,Enviva Ahoskie,Enviva LP,Ahoskie,Hertford,NC,36.270073,-76.96502,2017,Operating,2019,408000,32077952,50
511,Isabella Pellet,Isabella Pellet/PWGG LLC,Lake Isabella,Isabella,MI,43.638895,-84.984353,2011,Operating,2019,15000,46898945,50
512,Appalachian Wood Pellets,Allegheny Wood Products,Kingwood,Preston,WV,39.470376,-79.694009,2011,Operating,2019,55000,34077640,50
515,Wood Fuel Developers,Wood Fuel Developers,Waverly,Sussex,VA,37.035518,-77.098007,2012,Operating,2019,134000,30517080,50
531,Westervelt Renewable Energy,Westervelt Renewable Energy,Aliceville,Pickens,AL,33.159875,-88.112102,2017,Operating,2019,286600,31978120,50
542,Eagle Bio-Fuels,Eagle Bio-Fuels,New Richmond,St. Croix,WI,45.122157,-92.53804,2011,Operating,2019,0,41259584,50
545,Enviva Northampton,Enviva LP,Garysburg,Northampton,NC,36.451017,-77.558866,2013,Operating,2019,562000,34117586,50
548,Fram Renewable Fuels & Telfair Forest Products,Fram Renewable Fuels,Lumber City,Telfair,GA,31.922692,-82.678022,2012,Operating,2019,138000,39298682,50
561,"Marth Peshtigo Pellet Company, LLC","Lignetics, Inc.",Peshtigo,Marinette,WI,45.056931,-87.732645,2008,Operating,2019,45000,40638724,50
576,Enviva Southampton,Enviva LP,Courtland,Southampton,VA,36.716261,-77.068019,2013,Operating,2019,562000,37667081,50
586,New Biomass Energy (Previously Solvay),New Biomass Energy,Quitman,Clarke,MS,32.045616,-88.7333,2016,Shut down,2016,250000,3051873,50
592,Fram Hazlehurst,Fram Renewable Fuels,Hazlehurst,Jeff Davis,GA,31.858032,-82.575929,2016,Operating,2019,525000,38838552,50
599,Amite BioEnergy,Drax,Gloster,Amite,MS,31.197396,-91.02177,2018,Operating,2019,578000,31799017,50
600,Morehouse BioEnergy,Drax,Bastrop,Morehouse,LA,32.755789,-91.872569,2018,Operating,2019,578000,37589826,50
601,Unaka Forest Products,Unaka Forest Products,Jonesborough,Washington,TN,36.205749,-82.441084,2000,Operating,2019,0,32548418,50
602,Dejno's Inc.,Dejno's Inc.,Kenosha,Kenosha,WI,42.583369,-87.885386,2000,Operating,2019,40000,45368858,50
603,"Wood Fibers, Inc.","Wood Fibers, Inc.",Niagara,Marinette,WI,45.781846,-87.994955,2008,Operating,2019,90000,47148945,50
614,LaSalle BioEnergy,Drax,Urania,La Salle,LA,31.879301,-92.278595,2017,Operating,2019,496000,38909289,50
624,Enviva Sampson,Enviva LP,Clinton,Sampson,NC,35.117794,-78.182454,2019,Operating,2019,661000,31797125,50
638,Colombo Energy,The Navigator Company (Previously Portucel Soporcel group),Greenwood,Greenwood,SC,34.229084,-82.063617,2016,Operating,2019,460000,32988031,50
641,Vulcan Renewables,Vulcan Renevables,St. Augustine,St. Johns,FL,29.873227,-81.387074,2014,Shut down,2015,220462,28328377,50
650,Northeast Wood Products LLC,Northeast Wood Products LLC,Peebles,Adams,OH,38.948981,-83.406633,2014,Temporarily Idled,2016,71500,39888463,50
657,Dixie Energy,Dixie Energy,Cross City,Dixie,FL,29.619828,-83.095343,2013,Operating,2019,40000,26928054,50
660,Highland Pellets Pine Bluff,Highland Pellets,Pine Bluff,Jefferson,AR,34.259709,-92.070103,2017,Operating,2019,661000,32909000,50
665,Equustock Montbrook,Equustock,Montbrook,Levy,FL,29.31959,-82.428493,2010,Operating,2019,40000,23998489,50
666,Equustock Clare,Equustock,Clare,Clare,MI,43.818884,-84.76832,2010,Operating,2019,36000,48888782,50
668,Equustock Troy,Equustock,Troy,Fluvanna,VA,37.950484,-78.246087,2010,Operating,2019,40000,39087268,50
670,Log Hard Premium Pellets Inc,Log Hard Premium Pellets Inc,Spartansburg,Crawford,PA,41.83561,-79.661941,2009,Operating,2019,25000,48517614,50
685,Snow Timber Pellets,Snow Timber Pellets,Hurley,Iron,WI,46.439796,-90.200797,2015,Operating,2019,12000,44999209,50
686,Queston Wood Pellets,Queston Wood Pellets,West Windsor,Windsor,VT,43.486199,-72.487949,2015,Operating,2019,35000,44697474,50
690,NuCoal,Integro Earth Fuels Inc.,Greenville,Greenville,SC,34.757597,-82.384145,2014,Operating,2019,11000,37798344,50
698,Allendale White Pellet Plant,"Thunderbolt Biomass, Inc",Allendale,Allendale,SC,33.021462,-81.318899,2017,Operating,2019,60000,30168389,50
706,LJR Forest Products,LJR Forest Products,Swainsboro ,Emanuel,GA,32.530898,-82.338228,2017,Operating,2019,175000,35098382,50
708,Woodsmith Pellets,Smith Flooring,Mountain View,Howell,MO,36.995524,-91.720252,2015,Operating,2019,15000,39529705,50
714,WestWind Logistics LLC,WestWind Logistics LLC,Des Moines,Polk,IA,41.628639,-93.592415,2014,Operating,2019,15000,46839521,50
715,Southern Indiana Hardwoods,Southern Indiana Hardwoods,Huntingburg,Dubois,IN,38.337567,-86.859694,2011,Operating,2019,8000,33768899,50
716,Easy Heat,Easy Heat,South Charleston,Clark,OH,39.820233,-83.643496,2014,Operating,2019,13000,38038639,50
717,Godfrey Lumber Co.,Godfrey Lumber Co.,Statesville,Iredell,NC,35.761293,-80.885286,2016,Operating,2019,12000,37198858,50
738,Blackstone Pellets,Eastford Wood Fiber LLC,Eastford,Windham,CT,41.873818,-72.088698,2014,Operating,2019,15000,48317089,50
